…
both |> unnest_product()
#> # A tibble: 49 × 7
#>    companies_id               grouped_by risk_category profile_ranking clustered
#>    <chr>                      <chr>      <chr>                   <dbl> <chr>    
#>  1 fleischerei-stiefsohn_000… all        high                    1     stove    
#>  2 fleischerei-stiefsohn_000… isic_4dig… high                    1     stove    
#>  3 fleischerei-stiefsohn_000… tilt_sect… high                    1     stove    
#>  4 fleischerei-stiefsohn_000… unit       high                    1     stove    
#>  5 fleischerei-stiefsohn_000… unit_isic… high                    1     stove    
#>  6 fleischerei-stiefsohn_000… unit_tilt… high                    1     stove    
#>  7 fleischerei-stiefsohn_000… all        high                    0.8   oven     
#>  8 fleischerei-stiefsohn_000… isic_4dig… medium                  0.5   oven     
#>  9 fleischerei-stiefsohn_000… tilt_sect… medium                  0.667 oven     
#> 10 fleischerei-stiefsohn_000… unit       medium                  0.5   oven     
#> # ℹ 39 more rows
#> # ℹ 2 more variables: activity_uuid_product_uuid <chr>, co2_footprint <dbl>

both |> unnest_company()
#> # A tibble: 129 × 4
#>    companies_id                             grouped_by  risk_category value
#>    <chr>                                    <chr>       <chr>         <dbl>
#>  1 fleischerei-stiefsohn_00000005219477-001 all         high            1  
#>  2 fleischerei-stiefsohn_00000005219477-001 all         medium          0  
#>  3 fleischerei-stiefsohn_00000005219477-001 all         low             0  
#>  4 fleischerei-stiefsohn_00000005219477-001 isic_4digit high            0.5
#>  5 fleischerei-stiefsohn_00000005219477-001 isic_4digit medium          0.5
#>  6 fleischerei-stiefsohn_00000005219477-001 isic_4digit low             0  
#>  7 fleischerei-stiefsohn_00000005219477-001 tilt_sector high            0.5
#>  8 fleischerei-stiefsohn_00000005219477-001 tilt_sector medium          0.5
#>  9 fleischerei-stiefsohn_00000005219477-001 tilt_sector low             0  
#> 10 fleischerei-stiefsohn_00000005219477-001 unit        high            0.5
#> # ℹ 119 more rows
```
…
