…
#>  9 cbrit_000000052… cbr-it       <NA>              NA Transporta… Transportation
#> 10 queso-quintana_… queso quint… 6e2f5d7…        1050 <NA>        <NA>          
#> 11 quesos-finca-la… quesos finc… 6e2f5d7…        1050 <NA>        <NA>          
#> 12 lusitania-food_… lusitania f… a6478da…        1050 <NA>        <NA>          
#> 13 lusitania-food_… lusitania f… a6478da…        1050 <NA>        <NA>          
#> 14 cbrit_000000052… cbr-it       <NA>              NA Constructi… Construction …
#> 15 cta-commodity-t… cta - commo… <NA>              NA Constructi… Construction …
#> 16 kurt-schmidt_00… kurt schmidt 011da85…        2029 <NA>        <NA>          
#> 17 breuninger-lede… breuninger … 03fbf98…        2029 <NA>        <NA>          
#> # ℹ 8 more variables: ipr_sector.x <chr>, ipr_subsector.x <chr>,
#> #   weo_product.x <chr>, weo_flow.x <chr>, ipr_sector.y <chr>,
#> #   ipr_subsector.y <chr>, weo_product.y <chr>, weo_flow.y <chr>
#> 
#> $pstr_ipr_2022
#> # A tibble: 112 × 7
#>    scenario          region ipr_sector ipr_subsector  year  value co2_reductions
#>    <chr>             <chr>  <chr>      <chr>         <dbl>  <dbl>          <dbl>
#>  1 1.5C Required Po… Weste… Power      <NA>           2020  550.           0    
#>  2 1.5C Required Po… Weste… Power      <NA>           2030   47.4          0.914
#>  3 1.5C Required Po… Weste… Power      <NA>           2040  -60.6          1.11 
#>  4 1.5C Required Po… Weste… Power      <NA>           2050 -175.           1.32 
#>  5 1.5C Required Po… Weste… Buildings  <NA>           2020  397.           0    
#>  6 1.5C Required Po… Weste… Buildings  <NA>           2030  189.           0.525
#>  7 1.5C Required Po… Weste… Buildings  <NA>           2040   13.1          0.967
#>  8 1.5C Required Po… Weste… Buildings  <NA>           2050    0            1    
#>  9 1.5C Required Po… Weste… Industry   Iron and Ste…  2020   70.2          0    
#> 10 1.5C Required Po… Weste… Industry   Iron and Ste…  2030   30.5          0.565
#> # ℹ 102 more rows
#> 
#> $pstr_weo_2022
#> # A tibble: 372 × 8
#>    publication  scenario region weo_product weo_flow  year  value co2_reductions
#>    <chr>        <chr>    <chr>  <chr>       <chr>    <dbl>  <dbl>          <dbl>
#>  1 World Energ… Stated … World  Total       Total e…  2020 31904          0     
#>  2 World Energ… Stated … World  Total       Total e…  2030 33135.        -0.0386
#>  3 World Energ… Stated … World  Total       Total e…  2040 30800.         0.0346
#>  4 World Energ… Stated … World  Total       Total e…  2050 28946.         0.0927
#>  5 World Energ… Stated … World  Coal        Total e…  2020 14335.         0     
#>  6 World Energ… Stated … World  Coal        Total e…  2030 13695          0.0447
#>  7 World Energ… Stated … World  Coal        Total e…  2040 11553.         0.194 
#>  8 World Energ… Stated … World  Coal        Total e…  2050  9863.         0.312 
#>  9 World Energ… Stated … World  Oil         Total e…  2020 10194.         0     
#> 10 World Energ… Stated … World  Oil         Total e…  2030 11412.        -0.119 
#> # ℹ 362 more rows
```
…
Works smoothly.

``` r
pctr <- real$pctr_ecoinvent_co2 |>
  pctr_score_activities() |>
  pctr_score_companies(real$pctr_companies)

pctr
#> # A tibble: 21 × 5
#>    company_id                          score share_all share_unit share_unit_sec
#>    <chr>                               <chr>     <dbl>      <dbl>          <dbl>
#>  1 lusitania-food_00000004012865-4035… high          1        1              1  
#>  2 lusitania-food_00000004012865-4035… medi…         0        0              0  
#>  3 lusitania-food_00000004012865-4035… low           0        0              0  
#>  4 queso-quintana_00000005400093-7292… high          0        1              0  
#>  5 queso-quintana_00000005400093-7292… medi…         1        0              1  
#>  6 queso-quintana_00000005400093-7292… low           0        0              0  
#>  7 quesos-finca-la-cruz_0000000464197… high          0        1              0  
#>  8 quesos-finca-la-cruz_0000000464197… medi…         1        0              1  
#>  9 quesos-finca-la-cruz_0000000464197… low           0        0              0  
#> 10 manz-backtechnik-gmbh_deu087356-00… high          1        0.5            0.5
#> # ℹ 11 more rows
```
…
