…
# rank in comparison to all input products with same input sector
ecoinvent_input <- ecoinvent_input |>
  group_by(input_sector) |>
  mutate(perc_sec = rank(input_co2) / length(input_co2)) %>%
  ungroup()

# rank in comparison to all input products with same unit and input sector
ecoinvent_input <- ecoinvent_input |>
  group_by(unit, input_sector) |>
  mutate(perc_unit_sec = rank(input_co2) / length(input_co2)) %>%
  ungroup()

ecoinvent_input
#> # A tibble: 75 × 14
#>    ei_activ…¹ activ…² input…³ inputs input…⁴ input…⁵ geo   isic_…⁶ ref_p…⁷ unit 
#>    <chr>      <chr>     <int> <chr>    <dbl> <chr>   <chr> <chr>   <chr>   <chr>
#>  1 transport… 0a242b…       1 table…    73.6 transp… RoW   4923:F… transp… metr…
#>  2 treatment… be06d2…       1 hydra…    96   infras… GLO   3822:T… residu… kg   
#>  3 market gr… 977d99…       1 calves    39.1 electr… RER   4912:F… transp… metr…
#>  4 treatment… 5fd7fc…       1 custo…    80.1 infras… GLO   3821:T… waste … kg   
#>  5 market fo… ebb847…       1 carri…    10.7 agricu… GLO   2819:M… ventil… m    
#>  6 market fo… 2f7b77…       1 equip…    25.7 infras… RER   2011:M… sodium… kg   
#>  7 transport… edd290…       1 funct…    16.9 infras… RoW   4922:O… transp… km   
#>  8 market fo… d2c084…       1 elect…    55.8 fuels   GLO   1080:M… minera… kg   
#>  9 citric ac… abdb78…       1 harbo…    29.1 infras… RNA   2011:M… citric… kg   
#> 10 sodium et… 16e1dc…       1 paint…    92.7 infras… ZA    2011:M… sodium… kg   
#> # … with 65 more rows, 4 more variables: perc_all <dbl>, perc_unit <dbl>,
#> #   perc_sec <dbl>, perc_unit_sec <dbl>, and abbreviated variable names
#> #   ¹​ei_activity, ²​activity_product_uuid, ³​input_number, ⁴​input_co2,
#> #   ⁵​input_sector, ⁶​isic_class, ⁷​ref_prod
```
…
# for products with same unit and sector
ecoinvent_scores <- ecoinvent_scores %>%
  mutate(
    score_unit_sec = case_when(
      perc_unit_sec < low_threshold ~ "low",
      perc_unit_sec >= low_threshold & perc_unit_sec < high_threshold ~ "medium",
      perc_unit_sec >= high_threshold ~ "high",
    )
  )

ecoinvent_scores
#> # A tibble: 75 × 18
#>    ei_activ…¹ activ…² input…³ inputs input…⁴ input…⁵ geo   isic_…⁶ ref_p…⁷ unit 
#>    <chr>      <chr>     <int> <chr>    <dbl> <chr>   <chr> <chr>   <chr>   <chr>
#>  1 transport… 0a242b…       1 table…    73.6 transp… RoW   4923:F… transp… metr…
#>  2 treatment… be06d2…       1 hydra…    96   infras… GLO   3822:T… residu… kg   
#>  3 market gr… 977d99…       1 calves    39.1 electr… RER   4912:F… transp… metr…
#>  4 treatment… 5fd7fc…       1 custo…    80.1 infras… GLO   3821:T… waste … kg   
#>  5 market fo… ebb847…       1 carri…    10.7 agricu… GLO   2819:M… ventil… m    
#>  6 market fo… 2f7b77…       1 equip…    25.7 infras… RER   2011:M… sodium… kg   
#>  7 transport… edd290…       1 funct…    16.9 infras… RoW   4922:O… transp… km   
#>  8 market fo… d2c084…       1 elect…    55.8 fuels   GLO   1080:M… minera… kg   
#>  9 citric ac… abdb78…       1 harbo…    29.1 infras… RNA   2011:M… citric… kg   
#> 10 sodium et… 16e1dc…       1 paint…    92.7 infras… ZA    2011:M… sodium… kg   
#> # … with 65 more rows, 8 more variables: perc_all <dbl>, perc_unit <dbl>,
#> #   perc_sec <dbl>, perc_unit_sec <dbl>, score_all <chr>, score_unit <chr>,
#> #   score_sector <chr>, score_unit_sec <chr>, and abbreviated variable names
#> #   ¹​ei_activity, ²​activity_product_uuid, ³​input_number, ⁴​input_co2,
#> #   ⁵​input_sector, ⁶​isic_class, ⁷​ref_prod
```
…
## 3.1 Join dataset `companies` and `ecoinvent_scores`

This is required to combine company-level information with LCA info from
ecoinvent.

``` r
# join by activity_product_uuid and other joint columns from companies with
# ecoinvent_scores

companies_scores <- companies |>
  left_join(ecoinvent_scores, by = c("activity_product_uuid", "ei_activity", "unit"))

companies_scores |> tibble::as_tibble()
#> # A tibble: 75 × 21
#>    compan…¹ compa…² ep_pr…³ activ…⁴ ei_ac…⁵ unit  input…⁶ inputs input…⁷ input…⁸
#>    <chr>    <chr>   <chr>   <chr>   <chr>   <chr>   <int> <chr>    <dbl> <chr>  
#>  1 fleisch… fleisc… shellf… 0a242b… transp… metr…       1 table…   73.6  transp…
#>  2 fleisch… fleisc… shellf… 0a242b… transp… metr…       2 aspha…   47.3  infras…
#>  3 fleisch… fleisc… shellf… 0a242b… transp… metr…       3 commu…   -3.9  infras…
#>  4 fleisch… fleisc… crusta… be06d2… treatm… kg          1 hydra…   96    infras…
#>  5 fleisch… fleisc… crusta… be06d2… treatm… kg          2 indoo…   -0.76 metals 
#>  6 fleisch… fleisc… crusta… be06d2… treatm… kg          3 elect…   88.2  infras…
#>  7 fleisch… fleisc… fish    977d99… market… metr…       1 calves   39.1  electr…
#>  8 fleisch… fleisc… fish    977d99… market… metr…       2 split…   -3.78 infras…
#>  9 fleisch… fleisc… fish    977d99… market… metr…       3 patio…   91.3  infras…
#> 10 fleisch… fleisc… meat    5fd7fc… treatm… kg          1 custo…   80.1  infras…
#> # … with 65 more rows, 11 more variables: geo <chr>, isic_class <chr>,
#> #   ref_prod <chr>, perc_all <dbl>, perc_unit <dbl>, perc_sec <dbl>,
#> #   perc_unit_sec <dbl>, score_all <chr>, score_unit <chr>, score_sector <chr>,
#> #   score_unit_sec <chr>, and abbreviated variable names ¹​company_id,
#> #   ²​company_name, ³​ep_product, ⁴​activity_product_uuid, ⁵​ei_activity,
#> #   ⁶​input_number, ⁷​input_co2, ⁸​input_sector
```
…
