…
Fix.

``` r
# The bad output resulted from duplicated data in the weo scenario
bad_391 <- xstr_product_level |>
  filter(
    type == "weo",
    # Exclude weo_flow = "energy" & weo_product = "total energy supply"
    tilt_sector == "energy",
    tilt_subsector == "total energy",
    # Exclude the one that has low risk (because emission capture)
    risk_category == "low",
  )
bad_391
#> # A tibble: 1,810 × 10
#>    companies_id        grouped_by risk_category clustered activity_uuid_produc…¹
#>    <chr>               <chr>      <chr>         <chr>     <chr>                 
#>  1 1a-autoservice-wol… weo_nz 20… low           petroleu… 4438999c-7021-5448-80…
#>  2 1a-autoservice-wol… weo_nz 20… low           petroleu… 4438999c-7021-5448-80…
#>  3 1a-baloonide_00000… weo_nz 20… low           petroleu… 4438999c-7021-5448-80…
#>  4 1a-baloonide_00000… weo_nz 20… low           petroleu… 4438999c-7021-5448-80…
#>  5 aceitunas-jope_000… weo_nz 20… low           oilve pit 4438999c-7021-5448-80…
#>  6 aceitunas-jope_000… weo_nz 20… low           oilve pit 4438999c-7021-5448-80…
#>  7 zugel-gmbh-co-kg_0… weo_nz 20… low           petroleu… 4438999c-7021-5448-80…
#>  8 zugel-gmbh-co-kg_0… weo_nz 20… low           petroleu… 4438999c-7021-5448-80…
#>  9 zwickl-mineralolve… weo_nz 20… low           petroleu… 4438999c-7021-5448-80…
#> 10 zwickl-mineralolve… weo_nz 20… low           petroleu… 4438999c-7021-5448-80…
#> # ℹ 1,800 more rows
#> # ℹ abbreviated name: ¹​activity_uuid_product_uuid
#> # ℹ 5 more variables: tilt_sector <chr>, scenario <chr>, year <dbl>,
#> #   type <chr>, tilt_subsector <chr>

xstr_product_level2 <- anti_join(xstr_product_level, bad_391)
#> Joining with `by = join_by(companies_id, grouped_by, risk_category, clustered,
#> activity_uuid_product_uuid, tilt_sector, scenario, year, type, tilt_subsector)`
xstr_product_level2
#> # A tibble: 1,831,152 × 10
#>    companies_id        grouped_by risk_category clustered activity_uuid_produc…¹
#>    <chr>               <chr>      <chr>         <chr>     <chr>                 
#>  1 %ef%bb%bfmathias-m… ipr_1.5c … high          <NA>      <NA>                  
#>  2 %ef%bb%bfmathias-m… ipr_1.5c … high          <NA>      <NA>                  
#>  3 -fred-sl_000000054… ipr_NA_NA  <NA>          fish, de… 26104519-4d49-5d85-bc…
#>  4 -fred-sl_000000054… weo_NA_NA  <NA>          fish, de… 26104519-4d49-5d85-bc…
#>  5 -fred-sl_000000054… ipr_NA_NA  <NA>          fish, fr… 0fe31e67-346a-504c-a0…
#>  6 -fred-sl_000000054… weo_NA_NA  <NA>          fish, fr… 0fe31e67-346a-504c-a0…
#>  7 -fred-sl_000000054… ipr_NA_NA  <NA>          fish, de… 26104519-4d49-5d85-bc…
#>  8 -fred-sl_000000054… weo_NA_NA  <NA>          fish, de… 26104519-4d49-5d85-bc…
#>  9 -fred-sl_000000054… ipr_NA_NA  <NA>          fish, fr… 0fe31e67-346a-504c-a0…
#> 10 -fred-sl_000000054… weo_NA_NA  <NA>          fish, fr… 0fe31e67-346a-504c-a0…
#> # ℹ 1,831,142 more rows
#> # ℹ abbreviated name: ¹​activity_uuid_product_uuid
#> # ℹ 5 more variables: tilt_sector <chr>, scenario <chr>, year <dbl>,
#> #   type <chr>, tilt_subsector <chr>
```
…
### At company level, remove `companies_id` with “;” in either of the relevant columns in `pstr_companies`

- <https://github.com/2DegreesInvesting/tiltIndicator/issues/405>
- <https://github.com/2DegreesInvesting/tiltIndicator/issues/439>

``` r
semicolon <- pstr_companies |> 
  select(-starts_with("tilt_")) |> 
  filter(if_any(ends_with("sector"), ~ str_detect(.x, ";")))

# Note ";"
select(semicolon, ends_with("sector"))
#> # A tibble: 48,811 × 4
#>    ipr_sector             ipr_subsector                 weo_sector weo_subsector
#>    <chr>                  <chr>                         <chr>      <chr>        
#>  1 buildings              <NA>                          total      residential;…
#>  2 transport              trucks; other transport       total      road heavy d…
#>  3 buildings              land use                      total; no… buildings; n…
#>  4 industry; total; power iron and steel; energy        total; na… iron and ste…
#>  5 industry               other industry; iron and ste… total      industry; ir…
#>  6 buildings; transport   other transport               total      buildings; t…
#>  7 buildings              <NA>                          total      buildings; r…
#>  8 buildings              land use                      total; no… buildings; r…
#>  9 transport              other transport; cars         total      transport; r…
#> 10 transport              trucks; other transport       total      road heavy d…
#> # ℹ 48,801 more rows

# Affected companies
distinct(semicolon, companies_id)
#> # A tibble: 48,486 × 1
#>    companies_id                                                                 
#>    <chr>                                                                        
#>  1 040-elektricien_00000005335951-634140001                                     
#>  2 1-2-3-autoservice-gmbh_00000004895557-001                                    
#>  3 1-a-arbeitsbuhnen-baumaschinen-stapler-u-kran-vermietung-beyer-mietservice_0…
#>  4 1-blechdesign-bauspenglerei-haslinger-harald-eu_00000005229852-001           
#>  5 1-iso-giesstechnik-maik-straile-ek_00000004818898-001                        
#>  6 123-abflussfrei-gmbh_00000004883869-001                                      
#>  7 123-carrelage-lille_00000005467896-840021001                                 
#>  8 123-filter-gmbh_00000005275457-001                                           
#>  9 123carcamnl_00000004686127-486065001                                         
#> 10 123repair-deutschland_00000005109249-001                                     
#> # ℹ 48,476 more rows
…
### At both levels, remove companies affected by duplicated scenario data

- <https://github.com/2DegreesInvesting/tiltIndicator/issues/403>
- <https://github.com/2DegreesInvesting/tiltIndicator/issues/391>

``` r
# Affected companies
ids_391 <- distinct(bad_391, companies_id)
ids_391
#> # A tibble: 902 × 1
#>    companies_id                                              
#>    <chr>                                                     
#>  1 1a-autoservice-wolfgang-meschede_00000004940450-001       
#>  2 1a-baloonide_00000004972901-001                           
#>  3 aceitunas-jope_00000003986658-001                         
#>  4 zugel-gmbh-co-kg_00000005078611-001                       
#>  5 zwickl-mineralolvetriebs-gmbh_00000005039177-001          
#>  6 bama-mineralolkontor-gmbh-co-kg_deu058222-00101           
#>  7 barmeier-holzhandel-inh-manuel-barmeier_00000005072363-001
#>  8 barriquand-technologies-thermiques_fra310535-00101        
#>  9 batra-sl_esp030231-00101                                  
#> 10 bau-brennstoffe-bender_00000004966624-001                 
#> # ℹ 892 more rows
…
