Calculate the indicator "emissions profile" — emissions_profile • tiltIndicator
…
    Examples

library(tiltIndicator)
library(tiltToyData)
library(readr)
options(readr.show_col_types = FALSE)

companies <- read_csv(toy_emissions_profile_any_companies())
products <- read_csv(toy_emissions_profile_products_ecoinvent())

both <- emissions_profile(companies, products)
both
#> # A tibble: 72 × 3
#>    companies_id                       product           company          
#>  * <chr>                              <list>            <list>           
#>  1 antimonarchy_canine                <tibble [6 × 6]>  <tibble [24 × 3]>
#>  2 celestial_lovebird                 <tibble [6 × 6]>  <tibble [24 × 3]>
#>  3 nonphilosophical_llama             <tibble [12 × 6]> <tibble [24 × 3]>
#>  4 asteria_megalotomusquinquespinosus <tibble [6 × 6]>  <tibble [24 × 3]>
#>  5 quasifaithful_amphiuma             <tibble [6 × 6]>  <tibble [24 × 3]>
#>  6 spectacular_americanriverotter     <tibble [6 × 6]>  <tibble [24 × 3]>
#>  7 contrite_silkworm                  <tibble [6 × 6]>  <tibble [24 × 3]>
#>  8 harmless_owlbutterfly              <tibble [6 × 6]>  <tibble [24 × 3]>
#>  9 fascist_maiasaura                  <tibble [6 × 6]>  <tibble [24 × 3]>
#> 10 charismatic_islandwhistler         <tibble [6 × 6]>  <tibble [24 × 3]>
#> # ℹ 62 more rows

both |> unnest_product()
#> # A tibble: 456 × 7
#>    companies_id        grouped_by        risk_category profile_ranking clustered
#>    <chr>               <chr>             <chr>                   <dbl> <chr>    
#>  1 antimonarchy_canine all               high                        1 tent     
#>  2 antimonarchy_canine isic_4digit       high                        1 tent     
#>  3 antimonarchy_canine tilt_subsector    high                        1 tent     
#>  4 antimonarchy_canine unit              high                        1 tent     
#>  5 antimonarchy_canine unit_isic_4digit  NA                         NA tent     
#>  6 antimonarchy_canine unit_tilt_subsec… high                        1 tent     
#>  7 celestial_lovebird  all               high                        1 table hi…
#>  8 celestial_lovebird  isic_4digit       high                        1 table hi…
#>  9 celestial_lovebird  tilt_subsector    high                        1 table hi…
#> 10 celestial_lovebird  unit              high                        1 table hi…
#> # ℹ 446 more rows
#> # ℹ 2 more variables: activity_uuid_product_uuid <chr>, co2_footprint <dbl>

both |> unnest_company()
#> # A tibble: 1,728 × 4
#>    companies_id        grouped_by     risk_category value
#>    <chr>               <chr>          <chr>         <dbl>
#>  1 antimonarchy_canine all            high              1
#>  2 antimonarchy_canine all            medium            0
#>  3 antimonarchy_canine all            low               0
#>  4 antimonarchy_canine all            NA                0
#>  5 antimonarchy_canine isic_4digit    high              1
#>  6 antimonarchy_canine isic_4digit    medium            0
#>  7 antimonarchy_canine isic_4digit    low               0
#>  8 antimonarchy_canine isic_4digit    NA                0
#>  9 antimonarchy_canine tilt_subsector high              1
#> 10 antimonarchy_canine tilt_subsector medium            0
#> # ℹ 1,718 more rows
…
