Calculate the indicator "emissions profile upstream" — emissions_profile_upstream • tiltIndicator
…
    Examples

library(tiltIndicator)
library(tiltToyData)
library(readr)
options(readr.show_col_types = FALSE)

companies <- read_csv(toy_emissions_profile_any_companies())
inputs <- read_csv(toy_emissions_profile_upstream_products_ecoinvent())

both <- emissions_profile_upstream(companies, inputs)

both |> unnest_product()
#> # A tibble: 690 × 8
#>    companies_id        grouped_by        risk_category profile_ranking clustered
#>    <chr>               <chr>             <chr>                   <dbl> <chr>    
#>  1 antimonarchy_canine all               high                    0.938 tent     
#>  2 antimonarchy_canine input_isic_4digit high                    1     tent     
#>  3 antimonarchy_canine input_tilt_subse… high                    1     tent     
#>  4 antimonarchy_canine input_unit        high                    1     tent     
#>  5 antimonarchy_canine input_unit_input… high                    1     tent     
#>  6 antimonarchy_canine input_unit_input… high                    1     tent     
#>  7 celestial_lovebird  all               high                    0.938 table hi…
#>  8 celestial_lovebird  input_isic_4digit high                    1     table hi…
#>  9 celestial_lovebird  input_tilt_subse… high                    1     table hi…
#> 10 celestial_lovebird  input_unit        high                    1     table hi…
#> # ℹ 680 more rows
#> # ℹ 3 more variables: activity_uuid_product_uuid <chr>,
#> #   input_activity_uuid_product_uuid <chr>, input_co2_footprint <dbl>

both |> unnest_company()
#> # A tibble: 1,728 × 4
#>    companies_id        grouped_by           risk_category value
#>    <chr>               <chr>                <chr>         <dbl>
#>  1 antimonarchy_canine all                  high              1
#>  2 antimonarchy_canine all                  medium            0
#>  3 antimonarchy_canine all                  low               0
#>  4 antimonarchy_canine all                  NA                0
#>  5 antimonarchy_canine input_isic_4digit    high              1
#>  6 antimonarchy_canine input_isic_4digit    medium            0
#>  7 antimonarchy_canine input_isic_4digit    low               0
#>  8 antimonarchy_canine input_isic_4digit    NA                0
#>  9 antimonarchy_canine input_tilt_subsector high              1
#> 10 antimonarchy_canine input_tilt_subsector medium            0
#> # ℹ 1,718 more rows
…
