Add values to categorize — emissions_profile_any_compute_profile_ranking • tiltIndicator
…
inputs <- read_csv(toy_emissions_profile_upstream_products_ecoinvent())
inputs |> emissions_profile_any_compute_profile_ranking()
#> # A tibble: 96 × 13
#>    grouped_by profile_ranking activity_uuid_product_uuid        ei_activity_name
#>    <chr>                <dbl> <chr>                             <chr>           
#>  1 all                 0.25   833caa78-30df-4374-900f-7f88ab44… market for deep…
#>  2 all                 0.938  76269c17-78d6-420b-991a-aa38c51b… market for shed…
#>  3 all                 0.625  bf94b5a7-b7a2-46d1-bb95-84bc560b… iron-nickel-chr…
#>  4 all                 1      bf94b5a7-b7a2-46d1-bb95-84bc560b… iron-nickel-chr…
#>  5 all                 0.188  bf94b5a7-b7a2-46d1-bb95-84bc560b… iron-nickel-chr…
#>  6 all                 0.312  bf94b5a7-b7a2-46d1-bb95-84bc560b… iron-nickel-chr…
#>  7 all                 0.5    bf94b5a7-b7a2-46d1-bb95-84bc560b… iron-nickel-chr…
#>  8 all                 0.812  bf94b5a7-b7a2-46d1-bb95-84bc560b… iron-nickel-chr…
#>  9 all                 0.375  bf94b5a7-b7a2-46d1-bb95-84bc560b… iron-nickel-chr…
#> 10 all                 0.0625 bf94b5a7-b7a2-46d1-bb95-84bc560b… iron-nickel-chr…
#> # ℹ 86 more rows
#> # ℹ 9 more variables: ei_geography <chr>,
#> #   input_activity_uuid_product_uuid <chr>, input_co2_footprint <dbl>,
#> #   input_ei_activity_name <chr>, input_isic_4digit <chr>,
#> #   input_reference_product_name <chr>, input_tilt_sector <chr>,
#> #   input_tilt_subsector <chr>, input_unit <chr>
…
