Calculate the ICTR indicator — ictr • tiltIndicator
…
    Value

At product level, a dataframe with at least columns companies_id, grouped_by, risk_category. At company level, a dataframe with at least columns companies_id, grouped_by, risk_category, value.

    Examples

companies <- ictr_companies
co2 <- ictr_inputs

# Product level
companies |>
  ictr_at_product_level(co2)
#> # A tibble: 324 × 17
#>    companies_id        grouped_by risk_category clustered activity_uuid_produc…¹
#>    <chr>               <chr>      <chr>         <chr>     <chr>                 
#>  1 fleischerei-stiefs… all        high          stove     0a242b09-772a-5edf-8e…
#>  2 fleischerei-stiefs… isic_sec   high          stove     0a242b09-772a-5edf-8e…
#>  3 fleischerei-stiefs… tilt_sec   high          stove     0a242b09-772a-5edf-8e…
#>  4 fleischerei-stiefs… unit       high          stove     0a242b09-772a-5edf-8e…
#>  5 fleischerei-stiefs… unit_isic… high          stove     0a242b09-772a-5edf-8e…
#>  6 fleischerei-stiefs… unit_tilt… high          stove     0a242b09-772a-5edf-8e…
#>  7 fleischerei-stiefs… all        high          stove     0a242b09-772a-5edf-8e…
#>  8 fleischerei-stiefs… isic_sec   high          stove     0a242b09-772a-5edf-8e…
#>  9 fleischerei-stiefs… tilt_sec   high          stove     0a242b09-772a-5edf-8e…
#> 10 fleischerei-stiefs… unit       high          stove     0a242b09-772a-5edf-8e…
#> # ℹ 314 more rows
#> # ℹ abbreviated name: ¹​activity_uuid_product_uuid
#> # ℹ 12 more variables: input_activity_uuid_product_uuid <chr>, unit <chr>,
#> #   input_co2_footprint <dbl>, input_tilt_sector <chr>, input_unit <chr>,
#> #   input_isic_4digit <dbl>, perc_all <dbl>, perc_isic_sec <dbl>,
#> #   perc_tilt_sec <dbl>, perc_unit <dbl>, perc_unit_isic_sec <dbl>,
#> #   perc_unit_tilt_sec <dbl>

# Company level
companies |>
  ictr_at_product_level(co2) |>
  ictr_at_company_level()
#> # A tibble: 144 × 4
#>    companies_id                           grouped_by risk_category value
#>    <chr>                                  <chr>      <chr>         <dbl>
#>  1 bst-procontrol-gmbh_00000005104947-001 all        high          0.143
#>  2 bst-procontrol-gmbh_00000005104947-001 all        medium        0.429
#>  3 bst-procontrol-gmbh_00000005104947-001 all        low           0.429
#>  4 bst-procontrol-gmbh_00000005104947-001 isic_sec   high          0.429
#>  5 bst-procontrol-gmbh_00000005104947-001 isic_sec   medium        0.286
#>  6 bst-procontrol-gmbh_00000005104947-001 isic_sec   low           0.286
#>  7 bst-procontrol-gmbh_00000005104947-001 tilt_sec   high          0.429
#>  8 bst-procontrol-gmbh_00000005104947-001 tilt_sec   medium        0.286
#>  9 bst-procontrol-gmbh_00000005104947-001 tilt_sec   low           0.286
#> 10 bst-procontrol-gmbh_00000005104947-001 unit       high          0.286
#> # ℹ 134 more rows

# Same
ictr(companies, co2)
#> # A tibble: 144 × 4
#>    companies_id                           grouped_by risk_category value
#>    <chr>                                  <chr>      <chr>         <dbl>
#>  1 bst-procontrol-gmbh_00000005104947-001 all        high          0.143
#>  2 bst-procontrol-gmbh_00000005104947-001 all        medium        0.429
#>  3 bst-procontrol-gmbh_00000005104947-001 all        low           0.429
#>  4 bst-procontrol-gmbh_00000005104947-001 isic_sec   high          0.429
#>  5 bst-procontrol-gmbh_00000005104947-001 isic_sec   medium        0.286
#>  6 bst-procontrol-gmbh_00000005104947-001 isic_sec   low           0.286
#>  7 bst-procontrol-gmbh_00000005104947-001 tilt_sec   high          0.429
#>  8 bst-procontrol-gmbh_00000005104947-001 tilt_sec   medium        0.286
#>  9 bst-procontrol-gmbh_00000005104947-001 tilt_sec   low           0.286
#> 10 bst-procontrol-gmbh_00000005104947-001 unit       high          0.286
#> # ℹ 134 more rows
…
