Add the emission reduction targets to the companies dataset — istr_add_reductions • tiltIndicator
…
    Author

    Lyanne Ho.

    Examples

istr_companies |>
  istr_mapping(istr_ep_weo) |>
  istr_add_reductions(istr_weo_2022)
#> # A tibble: 4,672 × 49
#>        X company_name        main_activity address company_city postcode country
#>    <dbl> <chr>               <chr>         <chr>   <chr>           <dbl> <chr>  
#>  1     1 fleischerei stiefs… manufacturer… linzer… prinzersdorf     3385 austria
#>  2     1 fleischerei stiefs… manufacturer… linzer… prinzersdorf     3385 austria
#>  3     1 fleischerei stiefs… manufacturer… linzer… prinzersdorf     3385 austria
#>  4     1 fleischerei stiefs… manufacturer… linzer… prinzersdorf     3385 austria
#>  5     1 fleischerei stiefs… manufacturer… linzer… prinzersdorf     3385 austria
#>  6     1 fleischerei stiefs… manufacturer… linzer… prinzersdorf     3385 austria
#>  7     1 fleischerei stiefs… manufacturer… linzer… prinzersdorf     3385 austria
#>  8     1 fleischerei stiefs… manufacturer… linzer… prinzersdorf     3385 austria
#>  9     1 fleischerei stiefs… manufacturer… linzer… prinzersdorf     3385 austria
#> 10     1 fleischerei stiefs… manufacturer… linzer… prinzersdorf     3385 austria
#> # ℹ 4,662 more rows
#> # ℹ 42 more variables: clustered <chr>, clustered_unit_ecoinvent <chr>,
#> #   ecoinvent <chr>, group <chr>, sector <chr>, subsector <chr>,
#> #   sector_ecoinvent_delimited <chr>, sector_ecoinvent <chr>,
#> #   co2_products <dbl>, co2_input_1 <dbl>, co2_input_2 <dbl>,
#> #   co2_input_3 <dbl>, companies_id <chr>, products_companies_id <chr>,
#> #   products_id <chr>, delimited_products_id <chr>, delimited_id <chr>, …
…
