ISTR datasets — istr_datasets • tiltIndicator
…
xstr_scenarios
#> # A tibble: 388 × 8
#>    scenario region sector    subsector              year  value reductions type 
#>    <chr>    <chr>  <chr>     <chr>                 <dbl>  <dbl>      <dbl> <chr>
#>  1 1.5c rps world  power     NA                     2030 5359.        0.58 ipr  
#>  2 1.5c rps world  power     NA                     2050 -807.        1.06 ipr  
#>  3 1.5c rps world  buildings NA                     2030 2454.        0.18 ipr  
#>  4 1.5c rps world  buildings NA                     2050   61.3       0.98 ipr  
#>  5 1.5c rps world  industry  iron and steel         2030 1872.        0.23 ipr  
#>  6 1.5c rps world  industry  iron and steel         2050   88.3       0.96 ipr  
#>  7 1.5c rps world  industry  non-metallic minerals  2030 2641.        0.13 ipr  
#>  8 1.5c rps world  industry  non-metallic minerals  2050  592.        0.8  ipr  
#>  9 1.5c rps world  industry  chemicals              2030 1218.        0.12 ipr  
#> 10 1.5c rps world  industry  chemicals              2050  102.        0.93 ipr  
#> # ℹ 378 more rows

istr_inputs
#> # A tibble: 74 × 10
#>    activity_uuid_product_uuid      input_activity_uuid_…¹ input_reference_prod…²
#>    <chr>                           <chr>                  <chr>                 
#>  1 0a242b09-772a-5edf-8e82-9cb4ba… 5de8c337-dea9-5c1f-9d… biowaste              
#>  2 0a242b09-772a-5edf-8e82-9cb4ba… 5de8c337-dea9-5c1f-9d… biowaste              
#>  3 0a242b09-772a-5edf-8e82-9cb4ba… 1aeb18b9-8355-560f-82… chemical, inorganic   
#>  4 0a242b09-772a-5edf-8e82-9cb4ba… 1aeb18b9-8355-560f-82… chemical, inorganic   
#>  5 0a242b09-772a-5edf-8e82-9cb4ba… 22704506-7707-5ae7-99… chemical, organic     
#>  6 0a242b09-772a-5edf-8e82-9cb4ba… 22704506-7707-5ae7-99… chemical, organic     
#>  7 0a242b09-772a-5edf-8e82-9cb4ba… 92078219-1ed3-5215-9f… cow milk              
#>  8 0a242b09-772a-5edf-8e82-9cb4ba… 92078219-1ed3-5215-9f… cow milk              
#>  9 0a242b09-772a-5edf-8e82-9cb4ba… 9d483329-b09a-5513-b1… cream, from cow milk  
#> 10 0a242b09-772a-5edf-8e82-9cb4ba… 9d483329-b09a-5513-b1… cream, from cow milk  
#> # ℹ 64 more rows
#> # ℹ abbreviated names: ¹​input_activity_uuid_product_uuid,
#> #   ²​input_reference_product_name
#> # ℹ 7 more variables: input_unit <chr>, input_isic_4digit <chr>,
#> #   input_tilt_sector <chr>, input_tilt_subsector <chr>, type <chr>,
#> #   sector <chr>, subsector <chr>
…
