TODO add title — pctr_ecoinvent_co2 • tiltIndicator
…
    An object of class spec_tbl_df (inherits from tbl_df, tbl, data.frame) with 25 rows and 9 columns.

    Source

    TODO add source

    See also

    Other datasets for product carbon transition risk.: 
pctr_companies

    Examples

pctr_ecoinvent_co2
#> # A tibble: 25 × 9
#>    activity_product_uuid       ei_activity geo   sec   isic_class ref_prod unit 
#>    <chr>                       <chr>       <chr> <chr> <chr>      <chr>    <chr>
#>  1 0a242b09-772a-5edf-8e82-9c… transport,… RoW   Tran… 4923:Frei… transpo… metr…
#>  2 be06d25c-73dc-55fb-965b-0f… treatment … GLO   Wast… 3822:Trea… residue… kg   
#>  3 977d997e-c257-5033-ba39-d0… market gro… RER   Tran… 4912:Frei… transpo… metr…
#>  4 5fd7fca0-0700-51fd-877a-72… treatment … GLO   Wast… 3821:Trea… waste p… kg   
#>  5 ebb8475e-ff57-5e4e-937b-b5… market for… GLO   Infr… 2819:Manu… ventila… m    
#>  6 2f7b77a7-1556-5c1b-b0aa-c4… market for… RER   Chem… 2011:Manu… sodium … kg   
#>  7 edd290d2-a5b0-56ec-aaf3-ad… transport,… RoW   Tran… 4922:Othe… transpo… km   
#>  8 d2c0844e-6e5b-52a3-802c-b1… market for… GLO   Agri… 1080:Manu… mineral… kg   
#>  9 abdb78ee-ddb9-5552-9c4c-ed… citric aci… RNA   Chem… 2011:Manu… citric … kg   
#> 10 16e1dc41-2793-521c-b4c9-81… sodium eth… ZA    Chem… 2011:Manu… sodium … kg   
#> # ℹ 15 more rows
#> # ℹ 2 more variables: co2_footprint <dbl>, emissions_unit <chr>
…
