Calculate the PCTR indicator — pctr • tiltIndicator
…
    Value

A dataframe with columns id, transition_risk, and scores.

    Examples

companies <- pctr_companies
co2 <- pctr_ecoinvent_co2

# Product level
companies |>
  pctr_at_product_level(co2)
#> # A tibble: 25 × 14
#>    activity_product_uuid     company_id ei_activity.x unit.x co2_footprint sec  
#>    <chr>                     <chr>      <chr>         <chr>          <dbl> <chr>
#>  1 0a242b09-772a-5edf-8e82-… powerstar… transport, f… metri…          4.33 Tran…
#>  2 be06d25c-73dc-55fb-965b-… powerstar… treatment of… kg              3.94 Wast…
#>  3 977d997e-c257-5033-ba39-… powerstar… market group… metri…          6.26 Tran…
#>  4 5fd7fca0-0700-51fd-877a-… powerstar… treatment of… kg              6.99 Wast…
#>  5 ebb8475e-ff57-5e4e-937b-… ebtor_000… market for v… m               7.83 Infr…
#>  6 2f7b77a7-1556-5c1b-b0aa-… ebtor_000… market for s… kg              5.97 Chem…
#>  7 edd290d2-a5b0-56ec-aaf3-… ebtor_000… transport, p… km              9.00 Tran…
#>  8 d2c0844e-6e5b-52a3-802c-… ebtor_000… market for m… kg              5.10 Agri…
#>  9 abdb78ee-ddb9-5552-9c4c-… ebtor_000… citric acid … kg              7.50 Chem…
#> 10 16e1dc41-2793-521c-b4c9-… mbdgmbh_0… sodium ethyl… kg              6.60 Chem…
#> # ℹ 15 more rows
#> # ℹ 8 more variables: unit.y <chr>, ei_activity.y <chr>, perc_all <dbl>,
#> #   perc_unit <dbl>, perc_unit_sec <dbl>, score_all <chr>, score_unit <chr>,
#> #   score_unit_sec <chr>
…
