PSTR datasets — pstr_datasets • tiltIndicator
…
Companies, sectors, subsectors and products from Europages.

WEO data from the International Energy Agency (IEA)'s
World Energy Outlook (WEO)
2022 scenario on the global level.

    Author

    Tilman Trompke.

    Examples

pstr_companies
#> # A tibble: 28 × 10
#>    company_id          company_name clustered activity_uuid_produc…¹ isic_4digit
#>    <chr>               <chr>        <chr>     <chr>                  <chr>      
#>  1 fleischerei-stiefs… fleischerei… steel     0faa7ecb-fef2-5117-89… 2410       
#>  2 fleischerei-stiefs… fleischerei… steel     0faa7ecb-fef2-5117-89… 2410       
#>  3 pecheries-basques_… pecheries-b… nitrogen  03fbf989-9a1a-5e3d-a5… 2029       
#>  4 pecheries-basques_… pecheries-b… nitrogen  03fbf989-9a1a-5e3d-a5… 2029       
#>  5 hoche-butter-gmbh_… hoche-butte… waste     NA                     NA         
#>  6 hoche-butter-gmbh_… hoche-butte… waste     NA                     NA         
#>  7 hoche-butter-gmbh_… hoche-butte… car       NA                     NA         
#>  8 hoche-butter-gmbh_… hoche-butte… car       NA                     NA         
#>  9 hoche-butter-gmbh_… hoche-butte… heater    NA                     NA         
#> 10 hoche-butter-gmbh_… hoche-butte… heater    NA                     NA         
#> # ℹ 18 more rows
#> # ℹ abbreviated name: ¹​activity_uuid_product_uuid
#> # ℹ 5 more variables: tilt_sector <chr>, tilt_subsector <chr>, type <chr>,
#> #   sector <chr>, subsector <chr>

xstr_scenarios
#> # A tibble: 388 × 8
#>    scenario region sector    subsector              year  value reductions type 
#>    <chr>    <chr>  <chr>     <chr>                 <dbl>  <dbl>      <dbl> <chr>
#>  1 1.5c rps world  power     NA                     2030 5359.        0.58 ipr  
#>  2 1.5c rps world  power     NA                     2050 -807.        1.06 ipr  
#>  3 1.5c rps world  buildings NA                     2030 2454.        0.18 ipr  
#>  4 1.5c rps world  buildings NA                     2050   61.3       0.98 ipr  
#>  5 1.5c rps world  industry  iron and steel         2030 1872.        0.23 ipr  
#>  6 1.5c rps world  industry  iron and steel         2050   88.3       0.96 ipr  
#>  7 1.5c rps world  industry  non-metallic minerals  2030 2641.        0.13 ipr  
#>  8 1.5c rps world  industry  non-metallic minerals  2050  592.        0.8  ipr  
#>  9 1.5c rps world  industry  chemicals              2030 1218.        0.12 ipr  
#> 10 1.5c rps world  industry  chemicals              2050  102.        0.93 ipr  
#> # ℹ 378 more rows
…
