Given a messy PSTR companies dataframe returns a cleaner one — pstr_prepare_companies • tiltIndicator
…
companies <- pstr_prepare_companies(raw_companies)
companies
#> # A tibble: 28 × 9
#>    company_id company_name products isic_4digit tilt_sector tilt_subsector type 
#>    <chr>      <chr>        <chr>          <dbl> <chr>       <chr>          <chr>
#>  1 cta-commo… cta - commo… NA                NA energy      bioenergy & w… ipr  
#>  2 cta-commo… cta - commo… NA                NA energy      bioenergy & w… weo  
#>  3 cbrit_000… cbr-it       NA                NA energy      bioenergy & w… ipr  
#>  4 cbrit_000… cbr-it       NA                NA energy      bioenergy & w… weo  
#>  5 manz-back… manz backte… 063e488…        2750 NA          NA             ipr  
#>  6 manz-back… manz backte… 063e488…        2750 NA          NA             weo  
#>  7 manz-back… manz backte… 61d0058…        2750 NA          NA             ipr  
#>  8 manz-back… manz backte… 61d0058…        2750 NA          NA             weo  
#>  9 barham-me… barham meta… 0faa7ec…        2410 NA          NA             ipr  
#> 10 barham-me… barham meta… 0faa7ec…        2410 NA          NA             weo  
#> # ℹ 18 more rows
#> # ℹ 2 more variables: sector <chr>, subsector <chr>
…
