Calculate input (or product) carbon transition risk — xctr • tiltIndicator
…
a column indicating the percentile relative to (i) all products with same unit (ii) products in same sector (iii) products in same segment

a column indicating whether the product has "low", "medium" or "high" relative production emissions.

    Examples

companies <- companies

# ICTR
inputs <- inputs

companies |>
  xctr_at_product_level(co2 = inputs)
#> # A tibble: 319 × 7
#>    companies_id        grouped_by risk_category clustered activity_uuid_produc…¹
#>    <chr>               <chr>      <chr>         <chr>     <chr>                 
#>  1 fleischerei-stiefs… all        high          stove     0a242b09-772a-5edf-8e…
#>  2 fleischerei-stiefs… isic_sec   high          stove     0a242b09-772a-5edf-8e…
#>  3 fleischerei-stiefs… tilt_sec   high          stove     0a242b09-772a-5edf-8e…
#>  4 fleischerei-stiefs… unit       high          stove     0a242b09-772a-5edf-8e…
#>  5 fleischerei-stiefs… unit_isic… high          stove     0a242b09-772a-5edf-8e…
#>  6 fleischerei-stiefs… unit_tilt… high          stove     0a242b09-772a-5edf-8e…
#>  7 fleischerei-stiefs… all        high          stove     0a242b09-772a-5edf-8e…
#>  8 fleischerei-stiefs… isic_sec   high          stove     0a242b09-772a-5edf-8e…
#>  9 fleischerei-stiefs… tilt_sec   high          stove     0a242b09-772a-5edf-8e…
#> 10 fleischerei-stiefs… unit       high          stove     0a242b09-772a-5edf-8e…
#> # ℹ 309 more rows
#> # ℹ abbreviated name: ¹​activity_uuid_product_uuid
#> # ℹ 2 more variables: input_activity_uuid_product_uuid <chr>,
#> #   input_co2_footprint <dbl>

companies |>
  xctr_at_product_level(co2 = inputs) |>
  xctr_at_company_level()
#> # A tibble: 126 × 4
#>    companies_id                           grouped_by risk_category value
#>    <chr>                                  <chr>      <chr>         <dbl>
#>  1 bst-procontrol-gmbh_00000005104947-001 all        high          0.143
#>  2 bst-procontrol-gmbh_00000005104947-001 all        medium        0.429
#>  3 bst-procontrol-gmbh_00000005104947-001 all        low           0.429
#>  4 bst-procontrol-gmbh_00000005104947-001 isic_sec   high          0.429
#>  5 bst-procontrol-gmbh_00000005104947-001 isic_sec   medium        0.286
#>  6 bst-procontrol-gmbh_00000005104947-001 isic_sec   low           0.286
#>  7 bst-procontrol-gmbh_00000005104947-001 tilt_sec   high          0.429
#>  8 bst-procontrol-gmbh_00000005104947-001 tilt_sec   medium        0.286
#>  9 bst-procontrol-gmbh_00000005104947-001 tilt_sec   low           0.286
#> 10 bst-procontrol-gmbh_00000005104947-001 unit       high          0.286
#> # ℹ 116 more rows

# Same
companies |> xctr(co2 = inputs)
#> # A tibble: 126 × 4
#>    companies_id                           grouped_by risk_category value
#>    <chr>                                  <chr>      <chr>         <dbl>
#>  1 bst-procontrol-gmbh_00000005104947-001 all        high          0.143
#>  2 bst-procontrol-gmbh_00000005104947-001 all        medium        0.429
#>  3 bst-procontrol-gmbh_00000005104947-001 all        low           0.429
#>  4 bst-procontrol-gmbh_00000005104947-001 isic_sec   high          0.429
#>  5 bst-procontrol-gmbh_00000005104947-001 isic_sec   medium        0.286
#>  6 bst-procontrol-gmbh_00000005104947-001 isic_sec   low           0.286
#>  7 bst-procontrol-gmbh_00000005104947-001 tilt_sec   high          0.429
#>  8 bst-procontrol-gmbh_00000005104947-001 tilt_sec   medium        0.286
#>  9 bst-procontrol-gmbh_00000005104947-001 tilt_sec   low           0.286
#> 10 bst-procontrol-gmbh_00000005104947-001 unit       high          0.286
#> # ℹ 116 more rows

# PCTR
products <- products

companies |>
  xctr_at_product_level(co2 = products)
#> # A tibble: 79 × 6
#>    companies_id        grouped_by risk_category clustered activity_uuid_produc…¹
#>    <chr>               <chr>      <chr>         <chr>     <chr>                 
#>  1 fleischerei-stiefs… all        high          stove     0a242b09-772a-5edf-8e…
#>  2 fleischerei-stiefs… isic_sec   high          stove     0a242b09-772a-5edf-8e…
#>  3 fleischerei-stiefs… tilt_sec   high          stove     0a242b09-772a-5edf-8e…
#>  4 fleischerei-stiefs… unit       high          stove     0a242b09-772a-5edf-8e…
#>  5 fleischerei-stiefs… unit_isic… high          stove     0a242b09-772a-5edf-8e…
#>  6 fleischerei-stiefs… unit_tilt… high          stove     0a242b09-772a-5edf-8e…
#>  7 fleischerei-stiefs… all        high          oven      be06d25c-73dc-55fb-96…
#>  8 fleischerei-stiefs… isic_sec   medium        oven      be06d25c-73dc-55fb-96…
#>  9 fleischerei-stiefs… tilt_sec   high          oven      be06d25c-73dc-55fb-96…
#> 10 fleischerei-stiefs… unit       medium        oven      be06d25c-73dc-55fb-96…
#> # ℹ 69 more rows
#> # ℹ abbreviated name: ¹​activity_uuid_product_uuid
#> # ℹ 1 more variable: co2_footprint <dbl>

companies |>
  xctr_at_product_level(co2 = products) |>
  xctr_at_company_level()
#> # A tibble: 126 × 4
#>    companies_id                           grouped_by risk_category value
#>    <chr>                                  <chr>      <chr>         <dbl>
#>  1 bst-procontrol-gmbh_00000005104947-001 all        high            0.5
#>  2 bst-procontrol-gmbh_00000005104947-001 all        medium          0.5
#>  3 bst-procontrol-gmbh_00000005104947-001 all        low             0  
#>  4 bst-procontrol-gmbh_00000005104947-001 isic_sec   high            0.5
#>  5 bst-procontrol-gmbh_00000005104947-001 isic_sec   medium          0.5
#>  6 bst-procontrol-gmbh_00000005104947-001 isic_sec   low             0  
#>  7 bst-procontrol-gmbh_00000005104947-001 tilt_sec   high            0.5
#>  8 bst-procontrol-gmbh_00000005104947-001 tilt_sec   medium          0.5
#>  9 bst-procontrol-gmbh_00000005104947-001 tilt_sec   low             0  
#> 10 bst-procontrol-gmbh_00000005104947-001 unit       high            1  
#> # ℹ 116 more rows

# Same
companies |> xctr(co2 = products)
#> # A tibble: 126 × 4
#>    companies_id                           grouped_by risk_category value
#>    <chr>                                  <chr>      <chr>         <dbl>
#>  1 bst-procontrol-gmbh_00000005104947-001 all        high            0.5
#>  2 bst-procontrol-gmbh_00000005104947-001 all        medium          0.5
#>  3 bst-procontrol-gmbh_00000005104947-001 all        low             0  
#>  4 bst-procontrol-gmbh_00000005104947-001 isic_sec   high            0.5
#>  5 bst-procontrol-gmbh_00000005104947-001 isic_sec   medium          0.5
#>  6 bst-procontrol-gmbh_00000005104947-001 isic_sec   low             0  
#>  7 bst-procontrol-gmbh_00000005104947-001 tilt_sec   high            0.5
#>  8 bst-procontrol-gmbh_00000005104947-001 tilt_sec   medium          0.5
#>  9 bst-procontrol-gmbh_00000005104947-001 tilt_sec   low             0  
#> 10 bst-procontrol-gmbh_00000005104947-001 unit       high            1  
#> # ℹ 116 more rows
…
