Restructure XSTR companies — xstr_pivot_type_sector_subsector • tiltIndicator
…
companies <- xstr_pivot_type_sector_subsector(raw_companies)
companies
#> # A tibble: 28 × 10
#>    company_id          company_name clustered activity_uuid_produc…¹ isic_4digit
#>    <chr>               <chr>        <chr>     <chr>                        <dbl>
#>  1 fleischerei-stiefs… fleischerei… steel     0faa7ecb-fef2-5117-89…        2410
#>  2 fleischerei-stiefs… fleischerei… steel     0faa7ecb-fef2-5117-89…        2410
#>  3 pecheries-basques_… pecheries-b… nitrogen  03fbf989-9a1a-5e3d-a5…        2029
#>  4 pecheries-basques_… pecheries-b… nitrogen  03fbf989-9a1a-5e3d-a5…        2029
#>  5 hoche-butter-gmbh_… hoche-butte… waste     NA                              NA
#>  6 hoche-butter-gmbh_… hoche-butte… waste     NA                              NA
#>  7 hoche-butter-gmbh_… hoche-butte… car       NA                              NA
#>  8 hoche-butter-gmbh_… hoche-butte… car       NA                              NA
#>  9 hoche-butter-gmbh_… hoche-butte… heater    NA                              NA
#> 10 hoche-butter-gmbh_… hoche-butte… heater    NA                              NA
#> # ℹ 18 more rows
#> # ℹ abbreviated name: ¹​activity_uuid_product_uuid
#> # ℹ 5 more variables: tilt_sector <chr>, tilt_subsector <chr>, type <chr>,
#> #   sector <chr>, subsector <chr>
…
