Handling a long runtime • tiltIndicator
…
When you’re done (or before) you can read all the .csv files into a
single dataset at once.

combined_results <- read_csv(dir_ls(path(parent, indicator)))
#> Rows: 151 Columns: 4
#> ── Column specification ────────────────────────────────────────────────────────
#> Delimiter: ","
#> chr (3): companies_id, grouped_by, risk_category
#> dbl (1): value
#> 
#> ℹ Use `spec()` to retrieve the full column specification for this data.
#> ℹ Specify the column types or set `show_col_types = FALSE` to quiet this message.
combined_results
#> # A tibble: 151 × 4
#>    companies_id                           grouped_by risk_category value
#>    <chr>                                  <chr>      <chr>         <dbl>
#>  1 bst-procontrol-gmbh_00000005104947-001 all        high            0.5
#>  2 bst-procontrol-gmbh_00000005104947-001 all        medium          0.5
#>  3 bst-procontrol-gmbh_00000005104947-001 all        low             0  
#>  4 bst-procontrol-gmbh_00000005104947-001 isic_sec   high            0.5
#>  5 bst-procontrol-gmbh_00000005104947-001 isic_sec   medium          0.5
#>  6 bst-procontrol-gmbh_00000005104947-001 isic_sec   low             0  
#>  7 bst-procontrol-gmbh_00000005104947-001 tilt_sec   high            0.5
#>  8 bst-procontrol-gmbh_00000005104947-001 tilt_sec   medium          0.5
#>  9 bst-procontrol-gmbh_00000005104947-001 tilt_sec   low             0  
#> 10 bst-procontrol-gmbh_00000005104947-001 unit       high            0.5
#> # ℹ 141 more rows
…
