Input carbon transition risk (ICTR) • tiltIndicator
…
Calculate the rank of each input product. This is done based on
the input products’ carbon footprints compared to 4 different benchmarks
(all products, products with same unit, products with same sector,
products with same unit and sector)

Assign scores to the input products. This is done based on their
position within the distribution of co2 footprints in comparison to
different benchmarks.

ecoinvent_scores <- inputs |>
  ictr_score_inputs(low_threshold = 0.3, high_threshold = 0.7)

ecoinvent_scores
#> # A tibble: 75 × 18
#>    ei_activity  activity_product_uuid input_number inputs input_co2 input_sector
#>    <chr>        <chr>                        <dbl> <chr>      <dbl> <chr>       
#>  1 transport, … 0a242b09-772a-5edf-8…            1 table…      73.6 transport   
#>  2 treatment o… be06d25c-73dc-55fb-9…            1 hydra…      96   infrastruct…
#>  3 market grou… 977d997e-c257-5033-b…            1 calves      39.1 electricity 
#>  4 treatment o… 5fd7fca0-0700-51fd-8…            1 custo…      80.1 infrastruct…
#>  5 market for … ebb8475e-ff57-5e4e-9…            1 carri…      10.7 agriculture…
#>  6 market for … 2f7b77a7-1556-5c1b-b…            1 equip…      25.7 infrastruct…
#>  7 transport, … edd290d2-a5b0-56ec-a…            1 funct…      16.9 infrastruct…
#>  8 market for … d2c0844e-6e5b-52a3-8…            1 elect…      55.8 fuels       
#>  9 citric acid… abdb78ee-ddb9-5552-9…            1 harbo…      29.1 infrastruct…
#> 10 sodium ethy… 16e1dc41-2793-521c-b…            1 paint…      92.7 infrastruct…
#> # ℹ 65 more rows
#> # ℹ 12 more variables: geo <chr>, isic_class <chr>, ref_prod <chr>, unit <chr>,
#> #   perc_all <dbl>, perc_unit <dbl>, perc_sec <dbl>, perc_unit_sec <dbl>,
#> #   score_all <chr>, score_unit <chr>, score_sector <chr>, score_unit_sec <chr>
…
