Input sector transition risk (ISTR) • tiltIndicator
…
Step 3: Identifying sector-specific emission reduction targets

Step 4: Categorising sector emission reduction targets into high,
medium, and low sector transition risk

Step 5: Aggregating on the company-level

Step 1: Identifying

Use mapper that serves as a sector classification bridge between the
Ecoinvent’s’ sectors and the WEO 2022 file.

istr_companies <- istr_mapping(reshaped_istr_companies, istr_ep_weo)
istr_companies
#> # A tibble: 1,174 × 41
#>        X company_name        main_activity address company_city postcode country
#>    <dbl> <chr>               <chr>         <chr>   <chr>           <dbl> <chr>  
#>  1     1 fleischerei stiefs… manufacturer… linzer… prinzersdorf     3385 austria
#>  2     1 fleischerei stiefs… manufacturer… linzer… prinzersdorf     3385 austria
#>  3     1 fleischerei stiefs… manufacturer… linzer… prinzersdorf     3385 austria
#>  4     1 fleischerei stiefs… manufacturer… linzer… prinzersdorf     3385 austria
#>  5     1 fleischerei stiefs… manufacturer… linzer… prinzersdorf     3385 austria
#>  6     1 fleischerei stiefs… manufacturer… linzer… prinzersdorf     3385 austria
#>  7     1 fleischerei stiefs… manufacturer… linzer… prinzersdorf     3385 austria
#>  8     1 fleischerei stiefs… manufacturer… linzer… prinzersdorf     3385 austria
#>  9     1 fleischerei stiefs… manufacturer… linzer… prinzersdorf     3385 austria
#> 10     1 fleischerei stiefs… manufacturer… linzer… prinzersdorf     3385 austria
#> # ℹ 1,164 more rows
#> # ℹ 34 more variables: clustered <chr>, clustered_unit_ecoinvent <chr>,
#> #   ecoinvent <chr>, group <chr>, sector <chr>, subsector <chr>,
#> #   sector_ecoinvent_delimited <chr>, sector_ecoinvent <chr>,
#> #   co2_products <dbl>, co2_input_1 <dbl>, co2_input_2 <dbl>,
#> #   co2_input_3 <dbl>, companies_id <chr>, products_companies_id <chr>,
#> #   products_id <chr>, delimited_products_id <chr>, delimited_id <chr>, …

Step 2: Matching the input products to the sectors

Each product of the company will be matched to a climate-relevant
sector.

We join this on the sectors.

with_reductions <- istr_companies |>
  istr_add_reductions(istr_weo_2022)
with_reductions
#> # A tibble: 4,672 × 49
#>        X company_name        main_activity address company_city postcode country
#>    <dbl> <chr>               <chr>         <chr>   <chr>           <dbl> <chr>  
#>  1     1 fleischerei stiefs… manufacturer… linzer… prinzersdorf     3385 austria
#>  2     1 fleischerei stiefs… manufacturer… linzer… prinzersdorf     3385 austria
#>  3     1 fleischerei stiefs… manufacturer… linzer… prinzersdorf     3385 austria
#>  4     1 fleischerei stiefs… manufacturer… linzer… prinzersdorf     3385 austria
#>  5     1 fleischerei stiefs… manufacturer… linzer… prinzersdorf     3385 austria
#>  6     1 fleischerei stiefs… manufacturer… linzer… prinzersdorf     3385 austria
#>  7     1 fleischerei stiefs… manufacturer… linzer… prinzersdorf     3385 austria
#>  8     1 fleischerei stiefs… manufacturer… linzer… prinzersdorf     3385 austria
#>  9     1 fleischerei stiefs… manufacturer… linzer… prinzersdorf     3385 austria
#> 10     1 fleischerei stiefs… manufacturer… linzer… prinzersdorf     3385 austria
#> # ℹ 4,662 more rows
#> # ℹ 42 more variables: clustered <chr>, clustered_unit_ecoinvent <chr>,
#> #   ecoinvent <chr>, group <chr>, sector <chr>, subsector <chr>,
#> #   sector_ecoinvent_delimited <chr>, sector_ecoinvent <chr>,
#> #   co2_products <dbl>, co2_input_1 <dbl>, co2_input_2 <dbl>,
#> #   co2_input_3 <dbl>, companies_id <chr>, products_companies_id <chr>,
#> #   products_id <chr>, delimited_products_id <chr>, delimited_id <chr>, …
…
Let us categorize the transition risk into low, medium and high risk,
based on the value of the reductions.

reductions ≤ 30% means low product sector transition
risk.

30% < reductions ≤ 70% means medium product sector transition
risk.

reductions > 70% means high product sector transition
risk.

with_transition_risk <- istr_add_transition_risk(with_reductions)
with_transition_risk
#> # A tibble: 4,672 × 50
#>        X company_name        main_activity address company_city postcode country
#>    <dbl> <chr>               <chr>         <chr>   <chr>           <dbl> <chr>  
#>  1     1 fleischerei stiefs… manufacturer… linzer… prinzersdorf     3385 austria
#>  2     1 fleischerei stiefs… manufacturer… linzer… prinzersdorf     3385 austria
#>  3     1 fleischerei stiefs… manufacturer… linzer… prinzersdorf     3385 austria
#>  4     1 fleischerei stiefs… manufacturer… linzer… prinzersdorf     3385 austria
#>  5     1 fleischerei stiefs… manufacturer… linzer… prinzersdorf     3385 austria
#>  6     1 fleischerei stiefs… manufacturer… linzer… prinzersdorf     3385 austria
#>  7     1 fleischerei stiefs… manufacturer… linzer… prinzersdorf     3385 austria
#>  8     1 fleischerei stiefs… manufacturer… linzer… prinzersdorf     3385 austria
#>  9     1 fleischerei stiefs… manufacturer… linzer… prinzersdorf     3385 austria
#> 10     1 fleischerei stiefs… manufacturer… linzer… prinzersdorf     3385 austria
#> # ℹ 4,662 more rows
#> # ℹ 43 more variables: clustered <chr>, clustered_unit_ecoinvent <chr>,
#> #   ecoinvent <chr>, group <chr>, sector <chr>, subsector <chr>,
#> #   sector_ecoinvent_delimited <chr>, sector_ecoinvent <chr>,
#> #   co2_products <dbl>, co2_input_1 <dbl>, co2_input_2 <dbl>,
#> #   co2_input_3 <dbl>, companies_id <chr>, products_companies_id <chr>,
#> #   products_id <chr>, delimited_products_id <chr>, delimited_id <chr>, …
…
