Product carbon transition risk (pctr) • tiltIndicator
…
# rank in comparison to all products
ecoinvent_ranks <- ecoinvent_co2 |>
  mutate(perc_all = rank(co2_footprint) / length(co2_footprint)) |> 
  # rank in comparison to all products with same unit
  group_by(unit) |>
  mutate(perc_unit = rank(co2_footprint) / length(co2_footprint)) %>%
  ungroup() |> 
  # rank in comparison to all products with same unit and sector
  group_by(unit, sec) |>
  mutate(perc_unit_sec = rank(co2_footprint) / length(co2_footprint)) %>%
  ungroup()

ecoinvent_ranks
#> # A tibble: 25 × 12
#>    activity_product_uuid       ei_activity geo   sec   isic_class ref_prod unit 
#>    <chr>                       <chr>       <chr> <chr> <chr>      <chr>    <chr>
#>  1 0a242b09-772a-5edf-8e82-9c… transport,… RoW   Tran… 4923:Frei… transpo… metr…
#>  2 be06d25c-73dc-55fb-965b-0f… treatment … GLO   Wast… 3822:Trea… residue… kg   
#>  3 977d997e-c257-5033-ba39-d0… market gro… RER   Tran… 4912:Frei… transpo… metr…
#>  4 5fd7fca0-0700-51fd-877a-72… treatment … GLO   Wast… 3821:Trea… waste p… kg   
#>  5 ebb8475e-ff57-5e4e-937b-b5… market for… GLO   Infr… 2819:Manu… ventila… m    
#>  6 2f7b77a7-1556-5c1b-b0aa-c4… market for… RER   Chem… 2011:Manu… sodium … kg   
#>  7 edd290d2-a5b0-56ec-aaf3-ad… transport,… RoW   Tran… 4922:Othe… transpo… km   
#>  8 d2c0844e-6e5b-52a3-802c-b1… market for… GLO   Agri… 1080:Manu… mineral… kg   
#>  9 abdb78ee-ddb9-5552-9c4c-ed… citric aci… RNA   Chem… 2011:Manu… citric … kg   
#> 10 16e1dc41-2793-521c-b4c9-81… sodium eth… ZA    Chem… 2011:Manu… sodium … kg   
#> # ℹ 15 more rows
#> # ℹ 5 more variables: co2_footprint <dbl>, emissions_unit <chr>,
#> #   perc_all <dbl>, perc_unit <dbl>, perc_unit_sec <dbl>
…
ecoinvent_scores
#> # A tibble: 25 × 15
#>    activity_product_uuid       ei_activity geo   sec   isic_class ref_prod unit 
#>    <chr>                       <chr>       <chr> <chr> <chr>      <chr>    <chr>
#>  1 0a242b09-772a-5edf-8e82-9c… transport,… RoW   Tran… 4923:Frei… transpo… metr…
#>  2 be06d25c-73dc-55fb-965b-0f… treatment … GLO   Wast… 3822:Trea… residue… kg   
#>  3 977d997e-c257-5033-ba39-d0… market gro… RER   Tran… 4912:Frei… transpo… metr…
#>  4 5fd7fca0-0700-51fd-877a-72… treatment … GLO   Wast… 3821:Trea… waste p… kg   
#>  5 ebb8475e-ff57-5e4e-937b-b5… market for… GLO   Infr… 2819:Manu… ventila… m    
#>  6 2f7b77a7-1556-5c1b-b0aa-c4… market for… RER   Chem… 2011:Manu… sodium … kg   
#>  7 edd290d2-a5b0-56ec-aaf3-ad… transport,… RoW   Tran… 4922:Othe… transpo… km   
#>  8 d2c0844e-6e5b-52a3-802c-b1… market for… GLO   Agri… 1080:Manu… mineral… kg   
#>  9 abdb78ee-ddb9-5552-9c4c-ed… citric aci… RNA   Chem… 2011:Manu… citric … kg   
#> 10 16e1dc41-2793-521c-b4c9-81… sodium eth… ZA    Chem… 2011:Manu… sodium … kg   
#> # ℹ 15 more rows
#> # ℹ 8 more variables: co2_footprint <dbl>, emissions_unit <chr>,
#> #   perc_all <dbl>, perc_unit <dbl>, perc_unit_sec <dbl>, score_all <chr>,
#> #   score_unit <chr>, score_unit_sec <chr>
…
2: Calculate scores per company

Join dataset companies and ecoinvent_scores

This is needed required to combine company-level information with LCA
info from ecoinvent.

# join by activity_product_uuid and other joint columns from companies with ecoinvent_scores
companies_scores <- companies |>
  inner_join(ecoinvent_scores, by = c("activity_product_uuid", "ei_activity", "unit"))

companies_scores
#> # A tibble: 25 × 18
#>    company_id    company_name ep_product activity_product_uuid ei_activity unit 
#>    <chr>         <chr>        <chr>      <chr>                 <chr>       <chr>
#>  1 powerstartma… powerstart_… mining_an… 0a242b09-772a-5edf-8… transport,… metr…
#>  2 powerstartma… powerstart_… hydraulic… be06d25c-73dc-55fb-9… treatment … kg   
#>  3 powerstartma… powerstart_… hydraulic… 977d997e-c257-5033-b… market gro… metr…
#>  4 powerstartma… powerstart_… off_the_r… 5fd7fca0-0700-51fd-8… treatment … kg   
#>  5 ebtor_000000… ebtor        agricultu… ebb8475e-ff57-5e4e-9… market for… m    
#>  6 ebtor_000000… ebtor        nuts       2f7b77a7-1556-5c1b-b… market for… kg   
#>  7 ebtor_000000… ebtor        pistachio  edd290d2-a5b0-56ec-a… transport,… km   
#>  8 ebtor_000000… ebtor        dried_fru… d2c0844e-6e5b-52a3-8… market for… kg   
#>  9 ebtor_000000… ebtor        saffron    abdb78ee-ddb9-5552-9… citric aci… kg   
#> 10 mbdgmbh_0000… mbd_gmbh     steels_an… 16e1dc41-2793-521c-b… sodium eth… kg   
#> # ℹ 15 more rows
#> # ℹ 12 more variables: geo <chr>, sec <chr>, isic_class <chr>, ref_prod <chr>,
#> #   co2_footprint <dbl>, emissions_unit <chr>, perc_all <dbl>, perc_unit <dbl>,
#> #   perc_unit_sec <dbl>, score_all <chr>, score_unit <chr>,
#> #   score_unit_sec <chr>
…
