Product sector transition risk • tiltIndicator
…
Let us print the mapper, which serves as a sector classification
bridge between the Europages’ sectors and subsectors and the WEO 2022
file.

ep_weo_mapper
#> # A tibble: 133 × 6
#>    EP_categories_id           EP_group EP_sector EP_subsector weo_product_mapper
#>    <chr>                      <chr>    <chr>     <chr>        <chr>             
#>  1 d3a7a3c40afd18a7a84094226… metallu… steel_me… bending_ste… Total             
#>  2 8d926b734410de5ba68daa170… metallu… steel_me… boilers_sta… Total             
#>  3 2eed5a1fd604b1d3ec561a072… metallu… steel_me… boring_stee… Total             
#>  4 157f4f5953d1a5bfee4742175… metallu… steel_me… brazing_ste… Total             
#>  5 2092de203e479b67bea023563… metallu… steel_me… broaching_s… Total             
#>  6 62dea331c70a02280d5f71a27… metallu… steel_me… bronzing_st… Total             
#>  7 8c02cdfddde68d166c1352fa7… metallu… steel_me… canopies_me… Total             
#>  8 e593b1156ce341881d18b8274… metallu… steel_me… chrome_plat… Total             
#>  9 b044eec1205c7ef2fde9e38db… metallu… steel_me… cleaning_st… Total             
#> 10 0880f49af456479b3e4f99c1e… metallu… steel_me… cutting_ste… Total             
#> # ℹ 123 more rows
#> # ℹ 1 more variable: weo_flow_mapper <chr>
…
Let’s join that again with our previously joined data frame:

final_df <- joined_df |>
  left_join(weo_2022, by = c("weo_product_mapper" = "product", "weo_flow_mapper" = "flow"))
#> Warning in left_join(joined_df, weo_2022, by = c(weo_product_mapper = "product", : Detected an unexpected many-to-many relationship between `x` and `y`.
#> ℹ Row 1 of `x` matches multiple rows in `y`.
#> ℹ Row 5 of `y` matches multiple rows in `x`.
#> ℹ If a many-to-many relationship is expected, set `relationship =
#>   "many-to-many"` to silence this warning.

final_df
#> # A tibble: 37 × 17
#>    company_id company_name  products  sector subsector EP_categories_id EP_group
#>         <dbl> <chr>         <chr>     <chr>  <chr>     <chr>            <chr>   
#>  1          1 Peasant Peter screws    steel… bending_… d3a7a3c40afd18a… metallu…
#>  2          1 Peasant Peter screws    steel… bending_… d3a7a3c40afd18a… metallu…
#>  3          1 Peasant Peter screws    steel… bending_… d3a7a3c40afd18a… metallu…
#>  4          1 Peasant Peter screws    steel… bending_… d3a7a3c40afd18a… metallu…
#>  5          2 Peasant Peter aluminiu… steel… aluminiu… cff53720714f146… metallu…
#>  6          2 Peasant Peter aluminiu… steel… aluminiu… cff53720714f146… metallu…
#>  7          2 Peasant Peter aluminiu… steel… aluminiu… cff53720714f146… metallu…
#>  8          2 Peasant Peter aluminiu… steel… aluminiu… cff53720714f146… metallu…
#>  9          3 Peasant Peter ultrafil… cars   vehicle_… 9518ae57fc6be29… vehicle…
#> 10          3 Peasant Peter ultrafil… cars   vehicle_… 9518ae57fc6be29… vehicle…
#> # ℹ 27 more rows
#> # ℹ 10 more variables: weo_product_mapper <chr>, weo_flow_mapper <chr>,
#> #   publication <chr>, scenario <chr>, region <chr>, category <chr>,
#> #   unit <chr>, year <dbl>, value <dbl>, reductions <dbl>
…
reductions > 70% means high product sector transition
risk.

final_df_cat <- final_df |>
   mutate(
     transition_risk = case_when(
       reductions <= 30 ~ "low",
       reductions > 30 & reductions <= 70 ~ "medium",
       reductions >= 70 ~ "high",
       TRUE ~ "no_sector",
       )
     )

final_df_cat
#> # A tibble: 37 × 18
#>    company_id company_name  products  sector subsector EP_categories_id EP_group
#>         <dbl> <chr>         <chr>     <chr>  <chr>     <chr>            <chr>   
#>  1          1 Peasant Peter screws    steel… bending_… d3a7a3c40afd18a… metallu…
#>  2          1 Peasant Peter screws    steel… bending_… d3a7a3c40afd18a… metallu…
#>  3          1 Peasant Peter screws    steel… bending_… d3a7a3c40afd18a… metallu…
#>  4          1 Peasant Peter screws    steel… bending_… d3a7a3c40afd18a… metallu…
#>  5          2 Peasant Peter aluminiu… steel… aluminiu… cff53720714f146… metallu…
#>  6          2 Peasant Peter aluminiu… steel… aluminiu… cff53720714f146… metallu…
#>  7          2 Peasant Peter aluminiu… steel… aluminiu… cff53720714f146… metallu…
#>  8          2 Peasant Peter aluminiu… steel… aluminiu… cff53720714f146… metallu…
#>  9          3 Peasant Peter ultrafil… cars   vehicle_… 9518ae57fc6be29… vehicle…
#> 10          3 Peasant Peter ultrafil… cars   vehicle_… 9518ae57fc6be29… vehicle…
#> # ℹ 27 more rows
#> # ℹ 11 more variables: weo_product_mapper <chr>, weo_flow_mapper <chr>,
#> #   publication <chr>, scenario <chr>, region <chr>, category <chr>,
#> #   unit <chr>, year <dbl>, value <dbl>, reductions <dbl>,
#> #   transition_risk <chr>
…
Here I calculate the numbers of products per companies in a new
column, and join the data frame to have the data with the numbers of
products that a company produces.

n_products_per_companies <- demo_companies |>
  group_by(company_name) |>
  summarise(total_products_per_company = n())

final_df_cat <- final_df_cat |>
  left_join(n_products_per_companies, by = 'company_name')

final_df_cat
#> # A tibble: 37 × 19
#>    company_id company_name  products  sector subsector EP_categories_id EP_group
#>         <dbl> <chr>         <chr>     <chr>  <chr>     <chr>            <chr>   
#>  1          1 Peasant Peter screws    steel… bending_… d3a7a3c40afd18a… metallu…
#>  2          1 Peasant Peter screws    steel… bending_… d3a7a3c40afd18a… metallu…
#>  3          1 Peasant Peter screws    steel… bending_… d3a7a3c40afd18a… metallu…
#>  4          1 Peasant Peter screws    steel… bending_… d3a7a3c40afd18a… metallu…
#>  5          2 Peasant Peter aluminiu… steel… aluminiu… cff53720714f146… metallu…
#>  6          2 Peasant Peter aluminiu… steel… aluminiu… cff53720714f146… metallu…
#>  7          2 Peasant Peter aluminiu… steel… aluminiu… cff53720714f146… metallu…
#>  8          2 Peasant Peter aluminiu… steel… aluminiu… cff53720714f146… metallu…
#>  9          3 Peasant Peter ultrafil… cars   vehicle_… 9518ae57fc6be29… vehicle…
#> 10          3 Peasant Peter ultrafil… cars   vehicle_… 9518ae57fc6be29… vehicle…
#> # ℹ 27 more rows
#> # ℹ 12 more variables: weo_product_mapper <chr>, weo_flow_mapper <chr>,
#> #   publication <chr>, scenario <chr>, region <chr>, category <chr>,
#> #   unit <chr>, year <dbl>, value <dbl>, reductions <dbl>,
#> #   transition_risk <chr>, total_products_per_company <int>
…
