Product sector transition risk (PSTR) • tiltIndicator
…
Matching the products to the sectors

Identifying sector-specific emission reduction targets

Each product of the company will be matched to a climate-relevant
sector. For those that cannot be matched to one of the sectors, we
classify them as ‘Other’.

We join this on the sectors and subsectors columns.

with_reductions <- pstr_companies |>
  pstr_add_reductions(pstr_ep_weo, pstr_weo_2022)

with_reductions
#> # A tibble: 37 × 17
#>    company_id company_name  products  sector subsector EP_categories_id EP_group
#>         <dbl> <chr>         <chr>     <chr>  <chr>     <chr>            <chr>   
#>  1          1 Peasant Peter screws    steel… bending_… d3a7a3c40afd18a… metallu…
#>  2          1 Peasant Peter screws    steel… bending_… d3a7a3c40afd18a… metallu…
#>  3          1 Peasant Peter screws    steel… bending_… d3a7a3c40afd18a… metallu…
#>  4          1 Peasant Peter screws    steel… bending_… d3a7a3c40afd18a… metallu…
#>  5          2 Peasant Peter aluminiu… steel… aluminiu… cff53720714f146… metallu…
#>  6          2 Peasant Peter aluminiu… steel… aluminiu… cff53720714f146… metallu…
#>  7          2 Peasant Peter aluminiu… steel… aluminiu… cff53720714f146… metallu…
#>  8          2 Peasant Peter aluminiu… steel… aluminiu… cff53720714f146… metallu…
#>  9          3 Peasant Peter ultrafil… cars   vehicle_… 9518ae57fc6be29… vehicle…
#> 10          3 Peasant Peter ultrafil… cars   vehicle_… 9518ae57fc6be29… vehicle…
#> # ℹ 27 more rows
#> # ℹ 10 more variables: weo_product_mapper <chr>, weo_flow_mapper <chr>,
#> #   publication <chr>, scenario <chr>, region <chr>, category <chr>,
#> #   unit <chr>, year <dbl>, value <dbl>, reductions <dbl>
…
reductions ≤ 30% means low product sector transition
risk.

30% < reductions ≤ 70% means medium product sector transition
risk.

reductions > 70% means high product sector transition
risk.

with_transition_risk <- pstr_add_transition_risk(with_reductions)

with_transition_risk
#> # A tibble: 37 × 18
#>    company_id company_name  products  sector subsector EP_categories_id EP_group
#>         <dbl> <chr>         <chr>     <chr>  <chr>     <chr>            <chr>   
#>  1          1 Peasant Peter screws    steel… bending_… d3a7a3c40afd18a… metallu…
#>  2          1 Peasant Peter screws    steel… bending_… d3a7a3c40afd18a… metallu…
#>  3          1 Peasant Peter screws    steel… bending_… d3a7a3c40afd18a… metallu…
#>  4          1 Peasant Peter screws    steel… bending_… d3a7a3c40afd18a… metallu…
#>  5          2 Peasant Peter aluminiu… steel… aluminiu… cff53720714f146… metallu…
#>  6          2 Peasant Peter aluminiu… steel… aluminiu… cff53720714f146… metallu…
#>  7          2 Peasant Peter aluminiu… steel… aluminiu… cff53720714f146… metallu…
#>  8          2 Peasant Peter aluminiu… steel… aluminiu… cff53720714f146… metallu…
#>  9          3 Peasant Peter ultrafil… cars   vehicle_… 9518ae57fc6be29… vehicle…
#> 10          3 Peasant Peter ultrafil… cars   vehicle_… 9518ae57fc6be29… vehicle…
#> # ℹ 27 more rows
#> # ℹ 11 more variables: weo_product_mapper <chr>, weo_flow_mapper <chr>,
#> #   publication <chr>, scenario <chr>, region <chr>, category <chr>,
#> #   unit <chr>, year <dbl>, value <dbl>, reductions <dbl>,
#> #   transition_risk <chr>
…
