The tilt indicators • tiltIndicator
…
Example

library(tiltIndicator)
library(tiltToyData)
library(readr)
options(readr.show_col_types = FALSE)

companies <- read_csv(toy_emissions_profile_any_companies())
products <- read_csv(toy_emissions_profile_products())

both <- emissions_profile(companies, products)
both
#> # A tibble: 72 × 3
#>    companies_id                         product          company         
#>    <chr>                                <list>           <list>          
#>  1 soot_asianpiedstarling               <tibble [1 × 6]> <tibble [1 × 3]>
#>  2 frightening_chrysomelid              <tibble [1 × 6]> <tibble [1 × 3]>
#>  3 hyperbrutal_flea                     <tibble [1 × 6]> <tibble [1 × 3]>
#>  4 flexible_dolphin                     <tibble [1 × 6]> <tibble [1 × 3]>
#>  5 paramilitary_racerunner              <tibble [1 × 6]> <tibble [1 × 3]>
#>  6 level_meadowhawk                     <tibble [1 × 6]> <tibble [1 × 3]>
#>  7 heartrending_attwatersprairiechicken <tibble [1 × 6]> <tibble [1 × 3]>
#>  8 traumatophobic_hanumanmonkey         <tibble [1 × 6]> <tibble [1 × 3]>
#>  9 preliterary_toucan                   <tibble [1 × 6]> <tibble [1 × 3]>
#> 10 translunar_eelelephant               <tibble [1 × 6]> <tibble [1 × 3]>
#> # ℹ 62 more rows

both |> unnest_product()
#> # A tibble: 72 × 7
#>    companies_id               grouped_by risk_category profile_ranking clustered
#>    <chr>                      <chr>      <chr>                   <dbl> <chr>    
#>  1 soot_asianpiedstarling     NA         NA                         NA tent     
#>  2 frightening_chrysomelid    NA         NA                         NA table hi…
#>  3 hyperbrutal_flea           NA         NA                         NA surface …
#>  4 flexible_dolphin           NA         NA                         NA tent     
#>  5 paramilitary_racerunner    NA         NA                         NA tent     
#>  6 level_meadowhawk           NA         NA                         NA open spa…
#>  7 heartrending_attwaterspra… NA         NA                         NA tent     
#>  8 traumatophobic_hanumanmon… NA         NA                         NA tent     
#>  9 preliterary_toucan         NA         NA                         NA tent     
#> 10 translunar_eelelephant     NA         NA                         NA camper p…
#> # ℹ 62 more rows
#> # ℹ 2 more variables: activity_uuid_product_uuid <chr>, co2_footprint <dbl>

both |> unnest_company()
#> # A tibble: 72 × 4
#>    companies_id                         grouped_by risk_category value
#>    <chr>                                <chr>      <chr>         <dbl>
#>  1 soot_asianpiedstarling               NA         NA               NA
#>  2 frightening_chrysomelid              NA         NA               NA
#>  3 hyperbrutal_flea                     NA         NA               NA
#>  4 flexible_dolphin                     NA         NA               NA
#>  5 paramilitary_racerunner              NA         NA               NA
#>  6 level_meadowhawk                     NA         NA               NA
#>  7 heartrending_attwatersprairiechicken NA         NA               NA
#>  8 traumatophobic_hanumanmonkey         NA         NA               NA
#>  9 preliterary_toucan                   NA         NA               NA
#> 10 translunar_eelelephant               NA         NA               NA
#> # ℹ 62 more rows
…
Example

library(tiltIndicator)
library(tiltToyData)
library(readr)
options(readr.show_col_types = FALSE)

companies <- read_csv(toy_emissions_profile_any_companies())
inputs <- read_csv(toy_emissions_profile_upstream_products())

both <- emissions_profile_upstream(companies, inputs)

both |> unnest_product()
#> # A tibble: 72 × 8
#>    companies_id               grouped_by risk_category profile_ranking clustered
#>    <chr>                      <chr>      <chr>                   <dbl> <chr>    
#>  1 soot_asianpiedstarling     NA         NA                         NA tent     
#>  2 frightening_chrysomelid    NA         NA                         NA table hi…
#>  3 hyperbrutal_flea           NA         NA                         NA surface …
#>  4 flexible_dolphin           NA         NA                         NA tent     
#>  5 paramilitary_racerunner    NA         NA                         NA tent     
#>  6 level_meadowhawk           NA         NA                         NA open spa…
#>  7 heartrending_attwaterspra… NA         NA                         NA tent     
#>  8 traumatophobic_hanumanmon… NA         NA                         NA tent     
#>  9 preliterary_toucan         NA         NA                         NA tent     
#> 10 translunar_eelelephant     NA         NA                         NA camper p…
#> # ℹ 62 more rows
#> # ℹ 3 more variables: activity_uuid_product_uuid <chr>,
#> #   input_activity_uuid_product_uuid <chr>, input_co2_footprint <dbl>

both |> unnest_company()
#> # A tibble: 72 × 4
#>    companies_id                         grouped_by risk_category value
#>    <chr>                                <chr>      <chr>         <dbl>
#>  1 soot_asianpiedstarling               NA         NA               NA
#>  2 frightening_chrysomelid              NA         NA               NA
#>  3 hyperbrutal_flea                     NA         NA               NA
#>  4 flexible_dolphin                     NA         NA               NA
#>  5 paramilitary_racerunner              NA         NA               NA
#>  6 level_meadowhawk                     NA         NA               NA
#>  7 heartrending_attwatersprairiechicken NA         NA               NA
#>  8 traumatophobic_hanumanmonkey         NA         NA               NA
#>  9 preliterary_toucan                   NA         NA               NA
#> 10 translunar_eelelephant               NA         NA               NA
#> # ℹ 62 more rows
…
both |> unnest_product()
#> # A tibble: 196 × 11
#>    companies_id               grouped_by risk_category profile_ranking clustered
#>    <chr>                      <chr>      <chr>                   <dbl> <chr>    
#>  1 fleischerei-stiefsohn_000… ipr_1.5c … high                   0.23   steel    
#>  2 fleischerei-stiefsohn_000… ipr_1.5c … high                   0.96   steel    
#>  3 fleischerei-stiefsohn_000… weo_state… low                    0      steel    
#>  4 fleischerei-stiefsohn_000… weo_annou… low                    0      steel    
#>  5 fleischerei-stiefsohn_000… weo_net z… low                    0      steel    
#>  6 fleischerei-stiefsohn_000… weo_state… low                   -0.0752 steel    
#>  7 fleischerei-stiefsohn_000… weo_annou… low                    0.0781 steel    
#>  8 fleischerei-stiefsohn_000… weo_net z… high                   0.233  steel    
#>  9 fleischerei-stiefsohn_000… weo_state… low                   -0.0270 steel    
#> 10 fleischerei-stiefsohn_000… weo_annou… medium                 0.336  steel    
#> # ℹ 186 more rows
#> # ℹ 6 more variables: activity_uuid_product_uuid <chr>, tilt_sector <chr>,
#> #   scenario <chr>, year <dbl>, type <chr>, tilt_subsector <chr>

both |> unnest_company()
#> # A tibble: 588 × 4
#>    companies_id                             grouped_by       risk_category value
#>    <chr>                                    <chr>            <chr>         <dbl>
#>  1 fleischerei-stiefsohn_00000005219477-001 ipr_1.5c rps_20… high              1
#>  2 fleischerei-stiefsohn_00000005219477-001 ipr_1.5c rps_20… medium            0
#>  3 fleischerei-stiefsohn_00000005219477-001 ipr_1.5c rps_20… low               0
#>  4 fleischerei-stiefsohn_00000005219477-001 ipr_1.5c rps_20… high              1
#>  5 fleischerei-stiefsohn_00000005219477-001 ipr_1.5c rps_20… medium            0
#>  6 fleischerei-stiefsohn_00000005219477-001 ipr_1.5c rps_20… low               0
#>  7 fleischerei-stiefsohn_00000005219477-001 weo_announced p… high              0
#>  8 fleischerei-stiefsohn_00000005219477-001 weo_announced p… medium            0
#>  9 fleischerei-stiefsohn_00000005219477-001 weo_announced p… low               1
#> 10 fleischerei-stiefsohn_00000005219477-001 weo_announced p… high              0
#> # ℹ 578 more rows
…
both <- sector_profile_upstream(companies, scenarios, inputs)
both
#> # A tibble: 7 × 3
#>   companies_id                             product             company          
#>   <chr>                                    <list>              <list>           
#> 1 fleischerei-stiefsohn_00000005219477-001 <tibble [180 × 12]> <tibble [42 × 3]>
#> 2 pecheries-basques_fra316541-00101        <tibble [14 × 12]>  <tibble [42 × 3]>
#> 3 hoche-butter-gmbh_deu422723-693847001    <tibble [70 × 12]>  <tibble [42 × 3]>
#> 4 vicquelin-espaces-verts_fra697272-00101  <tibble [70 × 12]>  <tibble [42 × 3]>
#> 5 bst-procontrol-gmbh_00000005104947-001   <tibble [70 × 12]>  <tibble [42 × 3]>
#> 6 leider-gmbh_00000005064318-001           <tibble [150 × 12]> <tibble [42 × 3]>
#> 7 cheries-baqu_neu316541-00101             <tibble [150 × 12]> <tibble [42 × 3]>

both |> unnest_product()
#> # A tibble: 704 × 13
#>    companies_id               grouped_by risk_category profile_ranking clustered
#>    <chr>                      <chr>      <chr>                   <dbl> <chr>    
#>  1 fleischerei-stiefsohn_000… weo_state… low                     0     stove    
#>  2 fleischerei-stiefsohn_000… weo_state… low                    -0.192 stove    
#>  3 fleischerei-stiefsohn_000… weo_state… low                    -0.517 stove    
#>  4 fleischerei-stiefsohn_000… weo_state… low                    -0.689 stove    
#>  5 fleischerei-stiefsohn_000… weo_annou… low                     0     stove    
#>  6 fleischerei-stiefsohn_000… weo_annou… high                    0.301 stove    
#>  7 fleischerei-stiefsohn_000… weo_annou… high                    1.83  stove    
#>  8 fleischerei-stiefsohn_000… weo_annou… high                    3.17  stove    
#>  9 fleischerei-stiefsohn_000… weo_net z… low                     0     stove    
#> 10 fleischerei-stiefsohn_000… weo_net z… high                    0.909 stove    
#> # ℹ 694 more rows
#> # ℹ 8 more variables: activity_uuid_product_uuid <chr>, tilt_sector <chr>,
#> #   scenario <chr>, year <dbl>, type <chr>,
#> #   input_activity_uuid_product_uuid <chr>, input_tilt_sector <chr>,
#> #   input_tilt_subsector <chr>

both |> unnest_company()
#> # A tibble: 294 × 4
#>    companies_id                             grouped_by      risk_category  value
#>    <chr>                                    <chr>           <chr>          <dbl>
#>  1 fleischerei-stiefsohn_00000005219477-001 ipr_1.5c rps_2… high          0.333 
#>  2 fleischerei-stiefsohn_00000005219477-001 ipr_1.5c rps_2… medium        0.583 
#>  3 fleischerei-stiefsohn_00000005219477-001 ipr_1.5c rps_2… low           0.0833
#>  4 fleischerei-stiefsohn_00000005219477-001 ipr_1.5c rps_2… high          1     
#>  5 fleischerei-stiefsohn_00000005219477-001 ipr_1.5c rps_2… medium        0     
#>  6 fleischerei-stiefsohn_00000005219477-001 ipr_1.5c rps_2… low           0     
#>  7 fleischerei-stiefsohn_00000005219477-001 weo_announced … high          0     
#>  8 fleischerei-stiefsohn_00000005219477-001 weo_announced … medium        0     
#>  9 fleischerei-stiefsohn_00000005219477-001 weo_announced … low           1     
#> 10 fleischerei-stiefsohn_00000005219477-001 weo_announced … high          0.0769
#> # ℹ 284 more rows
…
